Compiled from "String.java"
public final class java.lang.String implements java.io.Serializable, java.lang.Comparable<java.lang.String>, java.lang.CharSequence {
  static final boolean COMPACT_STRINGS;

  public static final java.util.Comparator<java.lang.String> CASE_INSENSITIVE_ORDER;

  static final byte LATIN1;

  static final byte UTF16;

  public java.lang.String();
    Code:
       0: aload_0
       1: invokespecial #1                  // Method java/lang/Object."<init>":()V
       4: aload_0
       5: ldc           #2                  // String
       7: getfield      #3                  // Field value:[B
      10: putfield      #3                  // Field value:[B
      13: aload_0
      14: ldc           #2                  // String
      16: getfield      #4                  // Field coder:B
      19: putfield      #4                  // Field coder:B
      22: return

  public java.lang.String(java.lang.String);
    Code:
       0: aload_0
       1: invokespecial #1                  // Method java/lang/Object."<init>":()V
       4: aload_0
       5: aload_1
       6: getfield      #3                  // Field value:[B
       9: putfield      #3                  // Field value:[B
      12: aload_0
      13: aload_1
      14: getfield      #4                  // Field coder:B
      17: putfield      #4                  // Field coder:B
      20: aload_0
      21: aload_1
      22: getfield      #5                  // Field hash:I
      25: putfield      #5                  // Field hash:I
      28: return

  public java.lang.String(char[]);
    Code:
       0: aload_0
       1: aload_1
       2: iconst_0
       3: aload_1
       4: arraylength
       5: aconst_null
       6: invokespecial #6                  // Method "<init>":([CIILjava/lang/Void;)V
       9: return

  public java.lang.String(char[], int, int);
    Code:
       0: aload_0
       1: aload_1
       2: iload_2
       3: iload_3
       4: aload_1
       5: iload_2
       6: iload_3
       7: invokestatic  #7                  // Method rangeCheck:([CII)Ljava/lang/Void;
      10: invokespecial #6                  // Method "<init>":([CIILjava/lang/Void;)V
      13: return

  public java.lang.String(int[], int, int);
    Code:
       0: aload_0
       1: invokespecial #1                  // Method java/lang/Object."<init>":()V
       4: iload_2
       5: iload_3
       6: aload_1
       7: arraylength
       8: invokestatic  #8                  // Method checkBoundsOffCount:(III)V
      11: iload_3
      12: ifne          34
      15: aload_0
      16: ldc           #2                  // String
      18: getfield      #3                  // Field value:[B
      21: putfield      #3                  // Field value:[B
      24: aload_0
      25: ldc           #2                  // String
      27: getfield      #4                  // Field coder:B
      30: putfield      #4                  // Field coder:B
      33: return
      34: getstatic     #9                  // Field COMPACT_STRINGS:Z
      37: ifeq          65
      40: aload_1
      41: iload_2
      42: iload_3
      43: invokestatic  #10                 // Method java/lang/StringLatin1.toBytes:([III)[B
      46: astore        4
      48: aload         4
      50: ifnull        65
      53: aload_0
      54: iconst_0
      55: putfield      #4                  // Field coder:B
      58: aload_0
      59: aload         4
      61: putfield      #3                  // Field value:[B
      64: return
      65: aload_0
      66: iconst_1
      67: putfield      #4                  // Field coder:B
      70: aload_0
      71: aload_1
      72: iload_2
      73: iload_3
      74: invokestatic  #12                 // Method java/lang/StringUTF16.toBytes:([III)[B
      77: putfield      #3                  // Field value:[B
      80: return

  public java.lang.String(byte[], int, int, int);
    Code:
       0: aload_0
       1: invokespecial #1                  // Method java/lang/Object."<init>":()V
       4: iload_3
       5: iload         4
       7: aload_1
       8: arraylength
       9: invokestatic  #8                  // Method checkBoundsOffCount:(III)V
      12: iload         4
      14: ifne          36
      17: aload_0
      18: ldc           #2                  // String
      20: getfield      #3                  // Field value:[B
      23: putfield      #3                  // Field value:[B
      26: aload_0
      27: ldc           #2                  // String
      29: getfield      #4                  // Field coder:B
      32: putfield      #4                  // Field coder:B
      35: return
      36: getstatic     #9                  // Field COMPACT_STRINGS:Z
      39: ifeq          68
      42: iload_2
      43: i2b
      44: ifne          68
      47: aload_0
      48: aload_1
      49: iload_3
      50: iload_3
      51: iload         4
      53: iadd
      54: invokestatic  #13                 // Method java/util/Arrays.copyOfRange:([BII)[B
      57: putfield      #3                  // Field value:[B
      60: aload_0
      61: iconst_0
      62: putfield      #4                  // Field coder:B
      65: goto          126
      68: iload_2
      69: bipush        8
      71: ishl
      72: istore_2
      73: iload         4
      75: invokestatic  #14                 // Method java/lang/StringUTF16.newBytesFor:(I)[B
      78: astore        5
      80: iconst_0
      81: istore        6
      83: iload         6
      85: iload         4
      87: if_icmpge     115
      90: aload         5
      92: iload         6
      94: iload_2
      95: aload_1
      96: iload_3
      97: iinc          3, 1
     100: baload
     101: sipush        255
     104: iand
     105: ior
     106: invokestatic  #15                 // Method java/lang/StringUTF16.putChar:([BII)V
     109: iinc          6, 1
     112: goto          83
     115: aload_0
     116: aload         5
     118: putfield      #3                  // Field value:[B
     121: aload_0
     122: iconst_1
     123: putfield      #4                  // Field coder:B
     126: return

  public java.lang.String(byte[], int);
    Code:
       0: aload_0
       1: aload_1
       2: iload_2
       3: iconst_0
       4: aload_1
       5: arraylength
       6: invokespecial #16                 // Method "<init>":([BIII)V
       9: return

  public java.lang.String(byte[], int, int, java.lang.String) throws java.io.UnsupportedEncodingException;
    Code:
       0: aload_0
       1: invokespecial #1                  // Method java/lang/Object."<init>":()V
       4: aload         4
       6: ifnonnull     19
       9: new           #17                 // class java/lang/NullPointerException
      12: dup
      13: ldc           #18                 // String charsetName
      15: invokespecial #19                 // Method java/lang/NullPointerException."<init>":(Ljava/lang/String;)V
      18: athrow
      19: iload_2
      20: iload_3
      21: aload_1
      22: arraylength
      23: invokestatic  #8                  // Method checkBoundsOffCount:(III)V
      26: aload         4
      28: aload_1
      29: iload_2
      30: iload_3
      31: invokestatic  #20                 // Method java/lang/StringCoding.decode:(Ljava/lang/String;[BII)Ljava/lang/StringCoding$Result;
      34: astore        5
      36: aload_0
      37: aload         5
      39: getfield      #21                 // Field java/lang/StringCoding$Result.value:[B
      42: putfield      #3                  // Field value:[B
      45: aload_0
      46: aload         5
      48: getfield      #22                 // Field java/lang/StringCoding$Result.coder:B
      51: putfield      #4                  // Field coder:B
      54: return

  public java.lang.String(byte[], int, int, java.nio.charset.Charset);
    Code:
       0: aload_0
       1: invokespecial #1                  // Method java/lang/Object."<init>":()V
       4: aload         4
       6: ifnonnull     19
       9: new           #17                 // class java/lang/NullPointerException
      12: dup
      13: ldc           #23                 // String charset
      15: invokespecial #19                 // Method java/lang/NullPointerException."<init>":(Ljava/lang/String;)V
      18: athrow
      19: iload_2
      20: iload_3
      21: aload_1
      22: arraylength
      23: invokestatic  #8                  // Method checkBoundsOffCount:(III)V
      26: aload         4
      28: aload_1
      29: iload_2
      30: iload_3
      31: invokestatic  #24                 // Method java/lang/StringCoding.decode:(Ljava/nio/charset/Charset;[BII)Ljava/lang/StringCoding$Result;
      34: astore        5
      36: aload_0
      37: aload         5
      39: getfield      #21                 // Field java/lang/StringCoding$Result.value:[B
      42: putfield      #3                  // Field value:[B
      45: aload_0
      46: aload         5
      48: getfield      #22                 // Field java/lang/StringCoding$Result.coder:B
      51: putfield      #4                  // Field coder:B
      54: return

  public java.lang.String(byte[], java.lang.String) throws java.io.UnsupportedEncodingException;
    Code:
       0: aload_0
       1: aload_1
       2: iconst_0
       3: aload_1
       4: arraylength
       5: aload_2
       6: invokespecial #25                 // Method "<init>":([BIILjava/lang/String;)V
       9: return

  public java.lang.String(byte[], java.nio.charset.Charset);
    Code:
       0: aload_0
       1: aload_1
       2: iconst_0
       3: aload_1
       4: arraylength
       5: aload_2
       6: invokespecial #26                 // Method "<init>":([BIILjava/nio/charset/Charset;)V
       9: return

  public java.lang.String(byte[], int, int);
    Code:
       0: aload_0
       1: invokespecial #1                  // Method java/lang/Object."<init>":()V
       4: iload_2
       5: iload_3
       6: aload_1
       7: arraylength
       8: invokestatic  #8                  // Method checkBoundsOffCount:(III)V
      11: aload_1
      12: iload_2
      13: iload_3
      14: invokestatic  #27                 // Method java/lang/StringCoding.decode:([BII)Ljava/lang/StringCoding$Result;
      17: astore        4
      19: aload_0
      20: aload         4
      22: getfield      #21                 // Field java/lang/StringCoding$Result.value:[B
      25: putfield      #3                  // Field value:[B
      28: aload_0
      29: aload         4
      31: getfield      #22                 // Field java/lang/StringCoding$Result.coder:B
      34: putfield      #4                  // Field coder:B
      37: return

  public java.lang.String(byte[]);
    Code:
       0: aload_0
       1: aload_1
       2: iconst_0
       3: aload_1
       4: arraylength
       5: invokespecial #28                 // Method "<init>":([BII)V
       8: return

  public java.lang.String(java.lang.StringBuffer);
    Code:
       0: aload_0
       1: aload_1
       2: invokevirtual #29                 // Method java/lang/StringBuffer.toString:()Ljava/lang/String;
       5: invokespecial #30                 // Method "<init>":(Ljava/lang/String;)V
       8: return

  public java.lang.String(java.lang.StringBuilder);
    Code:
       0: aload_0
       1: aload_1
       2: aconst_null
       3: invokespecial #31                 // Method "<init>":(Ljava/lang/AbstractStringBuilder;Ljava/lang/Void;)V
       6: return

  public int length();
    Code:
       0: aload_0
       1: getfield      #3                  // Field value:[B
       4: arraylength
       5: aload_0
       6: invokevirtual #32                 // Method coder:()B
       9: ishr
      10: ireturn

  public boolean isEmpty();
    Code:
       0: aload_0
       1: getfield      #3                  // Field value:[B
       4: arraylength
       5: ifne          12
       8: iconst_1
       9: goto          13
      12: iconst_0
      13: ireturn

  public char charAt(int);
    Code:
       0: aload_0
       1: invokevirtual #33                 // Method isLatin1:()Z
       4: ifeq          16
       7: aload_0
       8: getfield      #3                  // Field value:[B
      11: iload_1
      12: invokestatic  #34                 // Method java/lang/StringLatin1.charAt:([BI)C
      15: ireturn
      16: aload_0
      17: getfield      #3                  // Field value:[B
      20: iload_1
      21: invokestatic  #35                 // Method java/lang/StringUTF16.charAt:([BI)C
      24: ireturn

  public int codePointAt(int);
    Code:
       0: aload_0
       1: invokevirtual #33                 // Method isLatin1:()Z
       4: ifeq          27
       7: iload_1
       8: aload_0
       9: getfield      #3                  // Field value:[B
      12: arraylength
      13: invokestatic  #36                 // Method checkIndex:(II)V
      16: aload_0
      17: getfield      #3                  // Field value:[B
      20: iload_1
      21: baload
      22: sipush        255
      25: iand
      26: ireturn
      27: aload_0
      28: getfield      #3                  // Field value:[B
      31: arraylength
      32: iconst_1
      33: ishr
      34: istore_2
      35: iload_1
      36: iload_2
      37: invokestatic  #36                 // Method checkIndex:(II)V
      40: aload_0
      41: getfield      #3                  // Field value:[B
      44: iload_1
      45: iload_2
      46: invokestatic  #37                 // Method java/lang/StringUTF16.codePointAt:([BII)I
      49: ireturn

  public int codePointBefore(int);
    Code:
       0: iload_1
       1: iconst_1
       2: isub
       3: istore_2
       4: iload_2
       5: iflt          16
       8: iload_2
       9: aload_0
      10: invokevirtual #38                 // Method length:()I
      13: if_icmplt     25
      16: new           #39                 // class java/lang/StringIndexOutOfBoundsException
      19: dup
      20: iload_1
      21: invokespecial #40                 // Method java/lang/StringIndexOutOfBoundsException."<init>":(I)V
      24: athrow
      25: aload_0
      26: invokevirtual #33                 // Method isLatin1:()Z
      29: ifeq          43
      32: aload_0
      33: getfield      #3                  // Field value:[B
      36: iload_2
      37: baload
      38: sipush        255
      41: iand
      42: ireturn
      43: aload_0
      44: getfield      #3                  // Field value:[B
      47: iload_1
      48: invokestatic  #41                 // Method java/lang/StringUTF16.codePointBefore:([BI)I
      51: ireturn

  public int codePointCount(int, int);
    Code:
       0: iload_1
       1: iflt          17
       4: iload_1
       5: iload_2
       6: if_icmpgt     17
       9: iload_2
      10: aload_0
      11: invokevirtual #38                 // Method length:()I
      14: if_icmple     25
      17: new           #42                 // class java/lang/IndexOutOfBoundsException
      20: dup
      21: invokespecial #43                 // Method java/lang/IndexOutOfBoundsException."<init>":()V
      24: athrow
      25: aload_0
      26: invokevirtual #33                 // Method isLatin1:()Z
      29: ifeq          36
      32: iload_2
      33: iload_1
      34: isub
      35: ireturn
      36: aload_0
      37: getfield      #3                  // Field value:[B
      40: iload_1
      41: iload_2
      42: invokestatic  #44                 // Method java/lang/StringUTF16.codePointCount:([BII)I
      45: ireturn

  public int offsetByCodePoints(int, int);
    Code:
       0: iload_1
       1: iflt          12
       4: iload_1
       5: aload_0
       6: invokevirtual #38                 // Method length:()I
       9: if_icmple     20
      12: new           #42                 // class java/lang/IndexOutOfBoundsException
      15: dup
      16: invokespecial #43                 // Method java/lang/IndexOutOfBoundsException."<init>":()V
      19: athrow
      20: aload_0
      21: iload_1
      22: iload_2
      23: invokestatic  #45                 // Method java/lang/Character.offsetByCodePoints:(Ljava/lang/CharSequence;II)I
      26: ireturn

  public void getChars(int, int, char[], int);
    Code:
       0: iload_1
       1: iload_2
       2: aload_0
       3: invokevirtual #38                 // Method length:()I
       6: invokestatic  #46                 // Method checkBoundsBeginEnd:(III)V
       9: iload         4
      11: iload_2
      12: iload_1
      13: isub
      14: aload_3
      15: arraylength
      16: invokestatic  #8                  // Method checkBoundsOffCount:(III)V
      19: aload_0
      20: invokevirtual #33                 // Method isLatin1:()Z
      23: ifeq          41
      26: aload_0
      27: getfield      #3                  // Field value:[B
      30: iload_1
      31: iload_2
      32: aload_3
      33: iload         4
      35: invokestatic  #47                 // Method java/lang/StringLatin1.getChars:([BII[CI)V
      38: goto          53
      41: aload_0
      42: getfield      #3                  // Field value:[B
      45: iload_1
      46: iload_2
      47: aload_3
      48: iload         4
      50: invokestatic  #48                 // Method java/lang/StringUTF16.getChars:([BII[CI)V
      53: return

  public void getBytes(int, int, byte[], int);
    Code:
       0: iload_1
       1: iload_2
       2: aload_0
       3: invokevirtual #38                 // Method length:()I
       6: invokestatic  #46                 // Method checkBoundsBeginEnd:(III)V
       9: aload_3
      10: invokestatic  #49                 // Method java/util/Objects.requireNonNull:(Ljava/lang/Object;)Ljava/lang/Object;
      13: pop
      14: iload         4
      16: iload_2
      17: iload_1
      18: isub
      19: aload_3
      20: arraylength
      21: invokestatic  #8                  // Method checkBoundsOffCount:(III)V
      24: aload_0
      25: invokevirtual #33                 // Method isLatin1:()Z
      28: ifeq          46
      31: aload_0
      32: getfield      #3                  // Field value:[B
      35: iload_1
      36: iload_2
      37: aload_3
      38: iload         4
      40: invokestatic  #50                 // Method java/lang/StringLatin1.getBytes:([BII[BI)V
      43: goto          58
      46: aload_0
      47: getfield      #3                  // Field value:[B
      50: iload_1
      51: iload_2
      52: aload_3
      53: iload         4
      55: invokestatic  #51                 // Method java/lang/StringUTF16.getBytes:([BII[BI)V
      58: return

  public byte[] getBytes(java.lang.String) throws java.io.UnsupportedEncodingException;
    Code:
       0: aload_1
       1: ifnonnull     12
       4: new           #17                 // class java/lang/NullPointerException
       7: dup
       8: invokespecial #52                 // Method java/lang/NullPointerException."<init>":()V
      11: athrow
      12: aload_1
      13: aload_0
      14: invokevirtual #32                 // Method coder:()B
      17: aload_0
      18: getfield      #3                  // Field value:[B
      21: invokestatic  #53                 // Method java/lang/StringCoding.encode:(Ljava/lang/String;B[B)[B
      24: areturn

  public byte[] getBytes(java.nio.charset.Charset);
    Code:
       0: aload_1
       1: ifnonnull     12
       4: new           #17                 // class java/lang/NullPointerException
       7: dup
       8: invokespecial #52                 // Method java/lang/NullPointerException."<init>":()V
      11: athrow
      12: aload_1
      13: aload_0
      14: invokevirtual #32                 // Method coder:()B
      17: aload_0
      18: getfield      #3                  // Field value:[B
      21: invokestatic  #54                 // Method java/lang/StringCoding.encode:(Ljava/nio/charset/Charset;B[B)[B
      24: areturn

  public byte[] getBytes();
    Code:
       0: aload_0
       1: invokevirtual #32                 // Method coder:()B
       4: aload_0
       5: getfield      #3                  // Field value:[B
       8: invokestatic  #55                 // Method java/lang/StringCoding.encode:(B[B)[B
      11: areturn

  public boolean equals(java.lang.Object);
    Code:
       0: aload_0
       1: aload_1
       2: if_acmpne     7
       5: iconst_1
       6: ireturn
       7: aload_1
       8: instanceof    #11                 // class java/lang/String
      11: ifeq          63
      14: aload_1
      15: checkcast     #11                 // class java/lang/String
      18: astore_2
      19: aload_0
      20: invokevirtual #32                 // Method coder:()B
      23: aload_2
      24: invokevirtual #32                 // Method coder:()B
      27: if_icmpne     63
      30: aload_0
      31: invokevirtual #33                 // Method isLatin1:()Z
      34: ifeq          51
      37: aload_0
      38: getfield      #3                  // Field value:[B
      41: aload_2
      42: getfield      #3                  // Field value:[B
      45: invokestatic  #56                 // Method java/lang/StringLatin1.equals:([B[B)Z
      48: goto          62
      51: aload_0
      52: getfield      #3                  // Field value:[B
      55: aload_2
      56: getfield      #3                  // Field value:[B
      59: invokestatic  #57                 // Method java/lang/StringUTF16.equals:([B[B)Z
      62: ireturn
      63: iconst_0
      64: ireturn

  public boolean contentEquals(java.lang.StringBuffer);
    Code:
       0: aload_0
       1: aload_1
       2: invokevirtual #58                 // Method contentEquals:(Ljava/lang/CharSequence;)Z
       5: ireturn

  public boolean contentEquals(java.lang.CharSequence);
    Code:
       0: aload_1
       1: instanceof    #63                 // class java/lang/AbstractStringBuilder
       4: ifeq          43
       7: aload_1
       8: instanceof    #64                 // class java/lang/StringBuffer
      11: ifeq          34
      14: aload_1
      15: dup
      16: astore_2
      17: monitorenter
      18: aload_0
      19: aload_1
      20: checkcast     #63                 // class java/lang/AbstractStringBuilder
      23: invokevirtual #65                 // Method nonSyncContentEquals:(Ljava/lang/AbstractStringBuilder;)Z
      26: aload_2
      27: monitorexit
      28: ireturn
      29: astore_3
      30: aload_2
      31: monitorexit
      32: aload_3
      33: athrow
      34: aload_0
      35: aload_1
      36: checkcast     #63                 // class java/lang/AbstractStringBuilder
      39: invokevirtual #65                 // Method nonSyncContentEquals:(Ljava/lang/AbstractStringBuilder;)Z
      42: ireturn
      43: aload_1
      44: instanceof    #11                 // class java/lang/String
      47: ifeq          56
      50: aload_0
      51: aload_1
      52: invokevirtual #66                 // Method equals:(Ljava/lang/Object;)Z
      55: ireturn
      56: aload_1
      57: invokeinterface #67,  1           // InterfaceMethod java/lang/CharSequence.length:()I
      62: istore_2
      63: iload_2
      64: aload_0
      65: invokevirtual #38                 // Method length:()I
      68: if_icmpeq     73
      71: iconst_0
      72: ireturn
      73: aload_0
      74: getfield      #3                  // Field value:[B
      77: astore_3
      78: aload_0
      79: invokevirtual #33                 // Method isLatin1:()Z
      82: ifeq          124
      85: iconst_0
      86: istore        4
      88: iload         4
      90: iload_2
      91: if_icmpge     121
      94: aload_3
      95: iload         4
      97: baload
      98: sipush        255
     101: iand
     102: aload_1
     103: iload         4
     105: invokeinterface #68,  2           // InterfaceMethod java/lang/CharSequence.charAt:(I)C
     110: if_icmpeq     115
     113: iconst_0
     114: ireturn
     115: iinc          4, 1
     118: goto          88
     121: goto          135
     124: aload_3
     125: aload_1
     126: iload_2
     127: invokestatic  #69                 // Method java/lang/StringUTF16.contentEquals:([BLjava/lang/CharSequence;I)Z
     130: ifne          135
     133: iconst_0
     134: ireturn
     135: iconst_1
     136: ireturn
    Exception table:
       from    to  target type
          18    28    29   any
          29    32    29   any

  public boolean equalsIgnoreCase(java.lang.String);
    Code:
       0: aload_0
       1: aload_1
       2: if_acmpne     9
       5: iconst_1
       6: goto          44
       9: aload_1
      10: ifnull        43
      13: aload_1
      14: invokevirtual #38                 // Method length:()I
      17: aload_0
      18: invokevirtual #38                 // Method length:()I
      21: if_icmpne     43
      24: aload_0
      25: iconst_1
      26: iconst_0
      27: aload_1
      28: iconst_0
      29: aload_0
      30: invokevirtual #38                 // Method length:()I
      33: invokevirtual #70                 // Method regionMatches:(ZILjava/lang/String;II)Z
      36: ifeq          43
      39: iconst_1
      40: goto          44
      43: iconst_0
      44: ireturn

  public int compareTo(java.lang.String);
    Code:
       0: aload_0
       1: getfield      #3                  // Field value:[B
       4: astore_2
       5: aload_1
       6: getfield      #3                  // Field value:[B
       9: astore_3
      10: aload_0
      11: invokevirtual #32                 // Method coder:()B
      14: aload_1
      15: invokevirtual #32                 // Method coder:()B
      18: if_icmpne     42
      21: aload_0
      22: invokevirtual #33                 // Method isLatin1:()Z
      25: ifeq          36
      28: aload_2
      29: aload_3
      30: invokestatic  #71                 // Method java/lang/StringLatin1.compareTo:([B[B)I
      33: goto          41
      36: aload_2
      37: aload_3
      38: invokestatic  #72                 // Method java/lang/StringUTF16.compareTo:([B[B)I
      41: ireturn
      42: aload_0
      43: invokevirtual #33                 // Method isLatin1:()Z
      46: ifeq          57
      49: aload_2
      50: aload_3
      51: invokestatic  #73                 // Method java/lang/StringLatin1.compareToUTF16:([B[B)I
      54: goto          62
      57: aload_2
      58: aload_3
      59: invokestatic  #74                 // Method java/lang/StringUTF16.compareToLatin1:([B[B)I
      62: ireturn

  public int compareToIgnoreCase(java.lang.String);
    Code:
       0: getstatic     #75                 // Field CASE_INSENSITIVE_ORDER:Ljava/util/Comparator;
       3: aload_0
       4: aload_1
       5: invokeinterface #76,  3           // InterfaceMethod java/util/Comparator.compare:(Ljava/lang/Object;Ljava/lang/Object;)I
      10: ireturn

  public boolean regionMatches(int, java.lang.String, int, int);
    Code:
       0: aload_0
       1: getfield      #3                  // Field value:[B
       4: astore        5
       6: aload_2
       7: getfield      #3                  // Field value:[B
      10: astore        6
      12: iload_3
      13: iflt          50
      16: iload_1
      17: iflt          50
      20: iload_1
      21: i2l
      22: aload_0
      23: invokevirtual #38                 // Method length:()I
      26: i2l
      27: iload         4
      29: i2l
      30: lsub
      31: lcmp
      32: ifgt          50
      35: iload_3
      36: i2l
      37: aload_2
      38: invokevirtual #38                 // Method length:()I
      41: i2l
      42: iload         4
      44: i2l
      45: lsub
      46: lcmp
      47: ifle          52
      50: iconst_0
      51: ireturn
      52: aload_0
      53: invokevirtual #32                 // Method coder:()B
      56: aload_2
      57: invokevirtual #32                 // Method coder:()B
      60: if_icmpne     116
      63: aload_0
      64: invokevirtual #33                 // Method isLatin1:()Z
      67: ifne          89
      70: iload         4
      72: ifle          89
      75: iload_1
      76: iconst_1
      77: ishl
      78: istore_1
      79: iload_3
      80: iconst_1
      81: ishl
      82: istore_3
      83: iload         4
      85: iconst_1
      86: ishl
      87: istore        4
      89: iload         4
      91: iinc          4, -1
      94: ifle          185
      97: aload         5
      99: iload_1
     100: iinc          1, 1
     103: baload
     104: aload         6
     106: iload_3
     107: iinc          3, 1
     110: baload
     111: if_icmpeq     89
     114: iconst_0
     115: ireturn
     116: aload_0
     117: invokevirtual #32                 // Method coder:()B
     120: ifne          154
     123: iload         4
     125: iinc          4, -1
     128: ifle          185
     131: aload         5
     133: iload_1
     134: iinc          1, 1
     137: invokestatic  #77                 // Method java/lang/StringLatin1.getChar:([BI)C
     140: aload         6
     142: iload_3
     143: iinc          3, 1
     146: invokestatic  #78                 // Method java/lang/StringUTF16.getChar:([BI)C
     149: if_icmpeq     123
     152: iconst_0
     153: ireturn
     154: iload         4
     156: iinc          4, -1
     159: ifle          185
     162: aload         5
     164: iload_1
     165: iinc          1, 1
     168: invokestatic  #78                 // Method java/lang/StringUTF16.getChar:([BI)C
     171: aload         6
     173: iload_3
     174: iinc          3, 1
     177: invokestatic  #77                 // Method java/lang/StringLatin1.getChar:([BI)C
     180: if_icmpeq     154
     183: iconst_0
     184: ireturn
     185: iconst_1
     186: ireturn

  public boolean regionMatches(boolean, int, java.lang.String, int, int);
    Code:
       0: iload_1
       1: ifne          15
       4: aload_0
       5: iload_2
       6: aload_3
       7: iload         4
       9: iload         5
      11: invokevirtual #79                 // Method regionMatches:(ILjava/lang/String;II)Z
      14: ireturn
      15: iload         4
      17: iflt          55
      20: iload_2
      21: iflt          55
      24: iload_2
      25: i2l
      26: aload_0
      27: invokevirtual #38                 // Method length:()I
      30: i2l
      31: iload         5
      33: i2l
      34: lsub
      35: lcmp
      36: ifgt          55
      39: iload         4
      41: i2l
      42: aload_3
      43: invokevirtual #38                 // Method length:()I
      46: i2l
      47: iload         5
      49: i2l
      50: lsub
      51: lcmp
      52: ifle          57
      55: iconst_0
      56: ireturn
      57: aload_0
      58: getfield      #3                  // Field value:[B
      61: astore        6
      63: aload_3
      64: getfield      #3                  // Field value:[B
      67: astore        7
      69: aload_0
      70: invokevirtual #32                 // Method coder:()B
      73: aload_3
      74: invokevirtual #32                 // Method coder:()B
      77: if_icmpne     115
      80: aload_0
      81: invokevirtual #33                 // Method isLatin1:()Z
      84: ifeq          102
      87: aload         6
      89: iload_2
      90: aload         7
      92: iload         4
      94: iload         5
      96: invokestatic  #80                 // Method java/lang/StringLatin1.regionMatchesCI:([BI[BII)Z
      99: goto          114
     102: aload         6
     104: iload_2
     105: aload         7
     107: iload         4
     109: iload         5
     111: invokestatic  #81                 // Method java/lang/StringUTF16.regionMatchesCI:([BI[BII)Z
     114: ireturn
     115: aload_0
     116: invokevirtual #33                 // Method isLatin1:()Z
     119: ifeq          137
     122: aload         6
     124: iload_2
     125: aload         7
     127: iload         4
     129: iload         5
     131: invokestatic  #82                 // Method java/lang/StringLatin1.regionMatchesCI_UTF16:([BI[BII)Z
     134: goto          149
     137: aload         6
     139: iload_2
     140: aload         7
     142: iload         4
     144: iload         5
     146: invokestatic  #83                 // Method java/lang/StringUTF16.regionMatchesCI_Latin1:([BI[BII)Z
     149: ireturn

  public boolean startsWith(java.lang.String, int);
    Code:
       0: iload_2
       1: iflt          17
       4: iload_2
       5: aload_0
       6: invokevirtual #38                 // Method length:()I
       9: aload_1
      10: invokevirtual #38                 // Method length:()I
      13: isub
      14: if_icmple     19
      17: iconst_0
      18: ireturn
      19: aload_0
      20: getfield      #3                  // Field value:[B
      23: astore_3
      24: aload_1
      25: getfield      #3                  // Field value:[B
      28: astore        4
      30: iconst_0
      31: istore        5
      33: aload         4
      35: arraylength
      36: istore        6
      38: aload_0
      39: invokevirtual #32                 // Method coder:()B
      42: aload_1
      43: invokevirtual #32                 // Method coder:()B
      46: if_icmpne     95
      49: aload_0
      50: invokevirtual #33                 // Method isLatin1:()Z
      53: ifeq          60
      56: iload_2
      57: goto          63
      60: iload_2
      61: iconst_1
      62: ishl
      63: istore        7
      65: iload         5
      67: iload         6
      69: if_icmpge     92
      72: aload_3
      73: iload         7
      75: iinc          7, 1
      78: baload
      79: aload         4
      81: iload         5
      83: iinc          5, 1
      86: baload
      87: if_icmpeq     65
      90: iconst_0
      91: ireturn
      92: goto          136
      95: aload_0
      96: invokevirtual #33                 // Method isLatin1:()Z
      99: ifeq          104
     102: iconst_0
     103: ireturn
     104: iload         5
     106: iload         6
     108: if_icmpge     136
     111: aload_3
     112: iload_2
     113: iinc          2, 1
     116: invokestatic  #78                 // Method java/lang/StringUTF16.getChar:([BI)C
     119: aload         4
     121: iload         5
     123: iinc          5, 1
     126: baload
     127: sipush        255
     130: iand
     131: if_icmpeq     104
     134: iconst_0
     135: ireturn
     136: iconst_1
     137: ireturn

  public boolean startsWith(java.lang.String);
    Code:
       0: aload_0
       1: aload_1
       2: iconst_0
       3: invokevirtual #84                 // Method startsWith:(Ljava/lang/String;I)Z
       6: ireturn

  public boolean endsWith(java.lang.String);
    Code:
       0: aload_0
       1: aload_1
       2: aload_0
       3: invokevirtual #38                 // Method length:()I
       6: aload_1
       7: invokevirtual #38                 // Method length:()I
      10: isub
      11: invokevirtual #84                 // Method startsWith:(Ljava/lang/String;I)Z
      14: ireturn

  public int hashCode();
    Code:
       0: aload_0
       1: getfield      #5                  // Field hash:I
       4: istore_1
       5: iload_1
       6: ifne          47
       9: aload_0
      10: getfield      #3                  // Field value:[B
      13: arraylength
      14: ifle          47
      17: aload_0
      18: aload_0
      19: invokevirtual #33                 // Method isLatin1:()Z
      22: ifeq          35
      25: aload_0
      26: getfield      #3                  // Field value:[B
      29: invokestatic  #85                 // Method java/lang/StringLatin1.hashCode:([B)I
      32: goto          42
      35: aload_0
      36: getfield      #3                  // Field value:[B
      39: invokestatic  #86                 // Method java/lang/StringUTF16.hashCode:([B)I
      42: dup
      43: istore_1
      44: putfield      #5                  // Field hash:I
      47: iload_1
      48: ireturn

  public int indexOf(int);
    Code:
       0: aload_0
       1: iload_1
       2: iconst_0
       3: invokevirtual #87                 // Method indexOf:(II)I
       6: ireturn

  public int indexOf(int, int);
    Code:
       0: aload_0
       1: invokevirtual #33                 // Method isLatin1:()Z
       4: ifeq          19
       7: aload_0
       8: getfield      #3                  // Field value:[B
      11: iload_1
      12: iload_2
      13: invokestatic  #88                 // Method java/lang/StringLatin1.indexOf:([BII)I
      16: goto          28
      19: aload_0
      20: getfield      #3                  // Field value:[B
      23: iload_1
      24: iload_2
      25: invokestatic  #89                 // Method java/lang/StringUTF16.indexOf:([BII)I
      28: ireturn

  public int lastIndexOf(int);
    Code:
       0: aload_0
       1: iload_1
       2: aload_0
       3: invokevirtual #38                 // Method length:()I
       6: iconst_1
       7: isub
       8: invokevirtual #90                 // Method lastIndexOf:(II)I
      11: ireturn

  public int lastIndexOf(int, int);
    Code:
       0: aload_0
       1: invokevirtual #33                 // Method isLatin1:()Z
       4: ifeq          19
       7: aload_0
       8: getfield      #3                  // Field value:[B
      11: iload_1
      12: iload_2
      13: invokestatic  #91                 // Method java/lang/StringLatin1.lastIndexOf:([BII)I
      16: goto          28
      19: aload_0
      20: getfield      #3                  // Field value:[B
      23: iload_1
      24: iload_2
      25: invokestatic  #92                 // Method java/lang/StringUTF16.lastIndexOf:([BII)I
      28: ireturn

  public int indexOf(java.lang.String);
    Code:
       0: aload_0
       1: invokevirtual #32                 // Method coder:()B
       4: aload_1
       5: invokevirtual #32                 // Method coder:()B
       8: if_icmpne     44
      11: aload_0
      12: invokevirtual #33                 // Method isLatin1:()Z
      15: ifeq          32
      18: aload_0
      19: getfield      #3                  // Field value:[B
      22: aload_1
      23: getfield      #3                  // Field value:[B
      26: invokestatic  #93                 // Method java/lang/StringLatin1.indexOf:([B[B)I
      29: goto          43
      32: aload_0
      33: getfield      #3                  // Field value:[B
      36: aload_1
      37: getfield      #3                  // Field value:[B
      40: invokestatic  #94                 // Method java/lang/StringUTF16.indexOf:([B[B)I
      43: ireturn
      44: aload_0
      45: invokevirtual #32                 // Method coder:()B
      48: ifne          53
      51: iconst_m1
      52: ireturn
      53: aload_0
      54: getfield      #3                  // Field value:[B
      57: aload_1
      58: getfield      #3                  // Field value:[B
      61: invokestatic  #95                 // Method java/lang/StringUTF16.indexOfLatin1:([B[B)I
      64: ireturn

  public int indexOf(java.lang.String, int);
    Code:
       0: aload_0
       1: getfield      #3                  // Field value:[B
       4: aload_0
       5: invokevirtual #32                 // Method coder:()B
       8: aload_0
       9: invokevirtual #38                 // Method length:()I
      12: aload_1
      13: iload_2
      14: invokestatic  #96                 // Method indexOf:([BBILjava/lang/String;I)I
      17: ireturn

  static int indexOf(byte[], byte, int, java.lang.String, int);
    Code:
       0: aload_3
       1: getfield      #3                  // Field value:[B
       4: astore        5
       6: aload_3
       7: invokevirtual #32                 // Method coder:()B
      10: istore        6
      12: aload_3
      13: invokevirtual #38                 // Method length:()I
      16: istore        7
      18: iload         4
      20: iload_2
      21: if_icmplt     35
      24: iload         7
      26: ifne          33
      29: iload_2
      30: goto          34
      33: iconst_m1
      34: ireturn
      35: iload         4
      37: ifge          43
      40: iconst_0
      41: istore        4
      43: iload         7
      45: ifne          51
      48: iload         4
      50: ireturn
      51: iload         7
      53: iload_2
      54: if_icmple     59
      57: iconst_m1
      58: ireturn
      59: iload_1
      60: iload         6
      62: if_icmpne     95
      65: iload_1
      66: ifne          83
      69: aload_0
      70: iload_2
      71: aload         5
      73: iload         7
      75: iload         4
      77: invokestatic  #97                 // Method java/lang/StringLatin1.indexOf:([BI[BII)I
      80: goto          94
      83: aload_0
      84: iload_2
      85: aload         5
      87: iload         7
      89: iload         4
      91: invokestatic  #98                 // Method java/lang/StringUTF16.indexOf:([BI[BII)I
      94: ireturn
      95: iload_1
      96: ifne          101
      99: iconst_m1
     100: ireturn
     101: aload_0
     102: iload_2
     103: aload         5
     105: iload         7
     107: iload         4
     109: invokestatic  #99                 // Method java/lang/StringUTF16.indexOfLatin1:([BI[BII)I
     112: ireturn

  public int lastIndexOf(java.lang.String);
    Code:
       0: aload_0
       1: aload_1
       2: aload_0
       3: invokevirtual #38                 // Method length:()I
       6: invokevirtual #100                // Method lastIndexOf:(Ljava/lang/String;I)I
       9: ireturn

  public int lastIndexOf(java.lang.String, int);
    Code:
       0: aload_0
       1: getfield      #3                  // Field value:[B
       4: aload_0
       5: invokevirtual #32                 // Method coder:()B
       8: aload_0
       9: invokevirtual #38                 // Method length:()I
      12: aload_1
      13: iload_2
      14: invokestatic  #101                // Method lastIndexOf:([BBILjava/lang/String;I)I
      17: ireturn

  static int lastIndexOf(byte[], byte, int, java.lang.String, int);
    Code:
       0: aload_3
       1: getfield      #3                  // Field value:[B
       4: astore        5
       6: aload_3
       7: invokevirtual #32                 // Method coder:()B
      10: istore        6
      12: aload_3
      13: invokevirtual #38                 // Method length:()I
      16: istore        7
      18: iload_2
      19: iload         7
      21: isub
      22: istore        8
      24: iload         4
      26: iload         8
      28: if_icmple     35
      31: iload         8
      33: istore        4
      35: iload         4
      37: ifge          42
      40: iconst_m1
      41: ireturn
      42: iload         7
      44: ifne          50
      47: iload         4
      49: ireturn
      50: iload_1
      51: iload         6
      53: if_icmpne     86
      56: iload_1
      57: ifne          74
      60: aload_0
      61: iload_2
      62: aload         5
      64: iload         7
      66: iload         4
      68: invokestatic  #102                // Method java/lang/StringLatin1.lastIndexOf:([BI[BII)I
      71: goto          85
      74: aload_0
      75: iload_2
      76: aload         5
      78: iload         7
      80: iload         4
      82: invokestatic  #103                // Method java/lang/StringUTF16.lastIndexOf:([BI[BII)I
      85: ireturn
      86: iload_1
      87: ifne          92
      90: iconst_m1
      91: ireturn
      92: aload_0
      93: iload_2
      94: aload         5
      96: iload         7
      98: iload         4
     100: invokestatic  #104                // Method java/lang/StringUTF16.lastIndexOfLatin1:([BI[BII)I
     103: ireturn

  public java.lang.String substring(int);
    Code:
       0: iload_1
       1: ifge          13
       4: new           #39                 // class java/lang/StringIndexOutOfBoundsException
       7: dup
       8: iload_1
       9: invokespecial #40                 // Method java/lang/StringIndexOutOfBoundsException."<init>":(I)V
      12: athrow
      13: aload_0
      14: invokevirtual #38                 // Method length:()I
      17: iload_1
      18: isub
      19: istore_2
      20: iload_2
      21: ifge          33
      24: new           #39                 // class java/lang/StringIndexOutOfBoundsException
      27: dup
      28: iload_2
      29: invokespecial #40                 // Method java/lang/StringIndexOutOfBoundsException."<init>":(I)V
      32: athrow
      33: iload_1
      34: ifne          39
      37: aload_0
      38: areturn
      39: aload_0
      40: invokevirtual #33                 // Method isLatin1:()Z
      43: ifeq          58
      46: aload_0
      47: getfield      #3                  // Field value:[B
      50: iload_1
      51: iload_2
      52: invokestatic  #105                // Method java/lang/StringLatin1.newString:([BII)Ljava/lang/String;
      55: goto          67
      58: aload_0
      59: getfield      #3                  // Field value:[B
      62: iload_1
      63: iload_2
      64: invokestatic  #106                // Method java/lang/StringUTF16.newString:([BII)Ljava/lang/String;
      67: areturn

  public java.lang.String substring(int, int);
    Code:
       0: aload_0
       1: invokevirtual #38                 // Method length:()I
       4: istore_3
       5: iload_1
       6: iload_2
       7: iload_3
       8: invokestatic  #46                 // Method checkBoundsBeginEnd:(III)V
      11: iload_2
      12: iload_1
      13: isub
      14: istore        4
      16: iload_1
      17: ifne          27
      20: iload_2
      21: iload_3
      22: if_icmpne     27
      25: aload_0
      26: areturn
      27: aload_0
      28: invokevirtual #33                 // Method isLatin1:()Z
      31: ifeq          47
      34: aload_0
      35: getfield      #3                  // Field value:[B
      38: iload_1
      39: iload         4
      41: invokestatic  #105                // Method java/lang/StringLatin1.newString:([BII)Ljava/lang/String;
      44: goto          57
      47: aload_0
      48: getfield      #3                  // Field value:[B
      51: iload_1
      52: iload         4
      54: invokestatic  #106                // Method java/lang/StringUTF16.newString:([BII)Ljava/lang/String;
      57: areturn

  public java.lang.CharSequence subSequence(int, int);
    Code:
       0: aload_0
       1: iload_1
       2: iload_2
       3: invokevirtual #107                // Method substring:(II)Ljava/lang/String;
       6: areturn

  public java.lang.String concat(java.lang.String);
    Code:
       0: aload_1
       1: invokevirtual #108                // Method isEmpty:()Z
       4: ifeq          9
       7: aload_0
       8: areturn
       9: aload_0
      10: invokevirtual #32                 // Method coder:()B
      13: aload_1
      14: invokevirtual #32                 // Method coder:()B
      17: if_icmpne     70
      20: aload_0
      21: getfield      #3                  // Field value:[B
      24: astore_2
      25: aload_1
      26: getfield      #3                  // Field value:[B
      29: astore_3
      30: aload_2
      31: arraylength
      32: aload_3
      33: arraylength
      34: iadd
      35: istore        4
      37: aload_2
      38: iload         4
      40: invokestatic  #109                // Method java/util/Arrays.copyOf:([BI)[B
      43: astore        5
      45: aload_3
      46: iconst_0
      47: aload         5
      49: aload_2
      50: arraylength
      51: aload_3
      52: arraylength
      53: invokestatic  #110                // Method java/lang/System.arraycopy:(Ljava/lang/Object;ILjava/lang/Object;II)V
      56: new           #11                 // class java/lang/String
      59: dup
      60: aload         5
      62: aload_0
      63: getfield      #4                  // Field coder:B
      66: invokespecial #111                // Method "<init>":([BB)V
      69: areturn
      70: aload_0
      71: invokevirtual #38                 // Method length:()I
      74: istore_2
      75: aload_1
      76: invokevirtual #38                 // Method length:()I
      79: istore_3
      80: iload_2
      81: iload_3
      82: iadd
      83: invokestatic  #14                 // Method java/lang/StringUTF16.newBytesFor:(I)[B
      86: astore        4
      88: aload_0
      89: aload         4
      91: iconst_0
      92: iconst_1
      93: invokevirtual #112                // Method getBytes:([BIB)V
      96: aload_1
      97: aload         4
      99: iload_2
     100: iconst_1
     101: invokevirtual #112                // Method getBytes:([BIB)V
     104: new           #11                 // class java/lang/String
     107: dup
     108: aload         4
     110: iconst_1
     111: invokespecial #111                // Method "<init>":([BB)V
     114: areturn

  public java.lang.String replace(char, char);
    Code:
       0: iload_1
       1: iload_2
       2: if_icmpeq     40
       5: aload_0
       6: invokevirtual #33                 // Method isLatin1:()Z
       9: ifeq          24
      12: aload_0
      13: getfield      #3                  // Field value:[B
      16: iload_1
      17: iload_2
      18: invokestatic  #113                // Method java/lang/StringLatin1.replace:([BCC)Ljava/lang/String;
      21: goto          33
      24: aload_0
      25: getfield      #3                  // Field value:[B
      28: iload_1
      29: iload_2
      30: invokestatic  #114                // Method java/lang/StringUTF16.replace:([BCC)Ljava/lang/String;
      33: astore_3
      34: aload_3
      35: ifnull        40
      38: aload_3
      39: areturn
      40: aload_0
      41: areturn

  public boolean matches(java.lang.String);
    Code:
       0: aload_1
       1: aload_0
       2: invokestatic  #115                // Method java/util/regex/Pattern.matches:(Ljava/lang/String;Ljava/lang/CharSequence;)Z
       5: ireturn

  public boolean contains(java.lang.CharSequence);
    Code:
       0: aload_0
       1: aload_1
       2: invokeinterface #116,  1          // InterfaceMethod java/lang/CharSequence.toString:()Ljava/lang/String;
       7: invokevirtual #117                // Method indexOf:(Ljava/lang/String;)I
      10: iflt          17
      13: iconst_1
      14: goto          18
      17: iconst_0
      18: ireturn

  public java.lang.String replaceFirst(java.lang.String, java.lang.String);
    Code:
       0: aload_1
       1: invokestatic  #118                // Method java/util/regex/Pattern.compile:(Ljava/lang/String;)Ljava/util/regex/Pattern;
       4: aload_0
       5: invokevirtual #119                // Method java/util/regex/Pattern.matcher:(Ljava/lang/CharSequence;)Ljava/util/regex/Matcher;
       8: aload_2
       9: invokevirtual #120                // Method java/util/regex/Matcher.replaceFirst:(Ljava/lang/String;)Ljava/lang/String;
      12: areturn

  public java.lang.String replaceAll(java.lang.String, java.lang.String);
    Code:
       0: aload_1
       1: invokestatic  #118                // Method java/util/regex/Pattern.compile:(Ljava/lang/String;)Ljava/util/regex/Pattern;
       4: aload_0
       5: invokevirtual #119                // Method java/util/regex/Pattern.matcher:(Ljava/lang/CharSequence;)Ljava/util/regex/Matcher;
       8: aload_2
       9: invokevirtual #121                // Method java/util/regex/Matcher.replaceAll:(Ljava/lang/String;)Ljava/lang/String;
      12: areturn

  public java.lang.String replace(java.lang.CharSequence, java.lang.CharSequence);
    Code:
       0: aload_1
       1: invokeinterface #116,  1          // InterfaceMethod java/lang/CharSequence.toString:()Ljava/lang/String;
       6: astore_3
       7: aload_2
       8: invokeinterface #116,  1          // InterfaceMethod java/lang/CharSequence.toString:()Ljava/lang/String;
      13: astore        4
      15: aload_0
      16: aload_3
      17: invokevirtual #117                // Method indexOf:(Ljava/lang/String;)I
      20: istore        5
      22: iload         5
      24: ifge          29
      27: aload_0
      28: areturn
      29: aload_3
      30: invokevirtual #38                 // Method length:()I
      33: istore        6
      35: iload         6
      37: iconst_1
      38: invokestatic  #122                // Method java/lang/Math.max:(II)I
      41: istore        7
      43: aload_0
      44: invokevirtual #38                 // Method length:()I
      47: istore        8
      49: iload         8
      51: iload         6
      53: isub
      54: aload         4
      56: invokevirtual #38                 // Method length:()I
      59: iadd
      60: istore        9
      62: iload         9
      64: ifge          75
      67: new           #123                // class java/lang/OutOfMemoryError
      70: dup
      71: invokespecial #124                // Method java/lang/OutOfMemoryError."<init>":()V
      74: athrow
      75: new           #125                // class java/lang/StringBuilder
      78: dup
      79: iload         9
      81: invokespecial #126                // Method java/lang/StringBuilder."<init>":(I)V
      84: astore        10
      86: iconst_0
      87: istore        11
      89: aload         10
      91: aload_0
      92: iload         11
      94: iload         5
      96: invokevirtual #127                // Method java/lang/StringBuilder.append:(Ljava/lang/CharSequence;II)Ljava/lang/StringBuilder;
      99: aload         4
     101: invokevirtual #128                // Method java/lang/StringBuilder.append:(Ljava/lang/String;)Ljava/lang/StringBuilder;
     104: pop
     105: iload         5
     107: iload         6
     109: iadd
     110: istore        11
     112: iload         5
     114: iload         8
     116: if_icmpge     135
     119: aload_0
     120: aload_3
     121: iload         5
     123: iload         7
     125: iadd
     126: invokevirtual #129                // Method indexOf:(Ljava/lang/String;I)I
     129: dup
     130: istore        5
     132: ifgt          89
     135: aload         10
     137: aload_0
     138: iload         11
     140: iload         8
     142: invokevirtual #127                // Method java/lang/StringBuilder.append:(Ljava/lang/CharSequence;II)Ljava/lang/StringBuilder;
     145: invokevirtual #130                // Method java/lang/StringBuilder.toString:()Ljava/lang/String;
     148: areturn

  public java.lang.String[] split(java.lang.String, int);
    Code:
       0: iconst_0
       1: istore_3
       2: aload_1
       3: invokevirtual #38                 // Method length:()I
       6: iconst_1
       7: if_icmpne     26
      10: ldc           #131                // String .$|()[{^?*+\\
      12: aload_1
      13: iconst_0
      14: invokevirtual #132                // Method charAt:(I)C
      17: dup
      18: istore_3
      19: invokevirtual #133                // Method indexOf:(I)I
      22: iconst_m1
      23: if_icmpeq     86
      26: aload_1
      27: invokevirtual #38                 // Method length:()I
      30: iconst_2
      31: if_icmpne     314
      34: aload_1
      35: iconst_0
      36: invokevirtual #132                // Method charAt:(I)C
      39: bipush        92
      41: if_icmpne     314
      44: aload_1
      45: iconst_1
      46: invokevirtual #132                // Method charAt:(I)C
      49: dup
      50: istore_3
      51: bipush        48
      53: isub
      54: bipush        57
      56: iload_3
      57: isub
      58: ior
      59: ifge          314
      62: iload_3
      63: bipush        97
      65: isub
      66: bipush        122
      68: iload_3
      69: isub
      70: ior
      71: ifge          314
      74: iload_3
      75: bipush        65
      77: isub
      78: bipush        90
      80: iload_3
      81: isub
      82: ior
      83: ifge          314
      86: iload_3
      87: ldc           #135                // int 55296
      89: if_icmplt     98
      92: iload_3
      93: ldc           #136                // int 57343
      95: if_icmple     314
      98: iconst_0
      99: istore        4
     101: iconst_0
     102: istore        5
     104: iload_2
     105: ifle          112
     108: iconst_1
     109: goto          113
     112: iconst_0
     113: istore        6
     115: new           #137                // class java/util/ArrayList
     118: dup
     119: invokespecial #138                // Method java/util/ArrayList."<init>":()V
     122: astore        7
     124: aload_0
     125: iload_3
     126: iload         4
     128: invokevirtual #87                 // Method indexOf:(II)I
     131: dup
     132: istore        5
     134: iconst_m1
     135: if_icmpeq     204
     138: iload         6
     140: ifeq          154
     143: aload         7
     145: invokevirtual #139                // Method java/util/ArrayList.size:()I
     148: iload_2
     149: iconst_1
     150: isub
     151: if_icmpge     177
     154: aload         7
     156: aload_0
     157: iload         4
     159: iload         5
     161: invokevirtual #107                // Method substring:(II)Ljava/lang/String;
     164: invokevirtual #140                // Method java/util/ArrayList.add:(Ljava/lang/Object;)Z
     167: pop
     168: iload         5
     170: iconst_1
     171: iadd
     172: istore        4
     174: goto          124
     177: aload_0
     178: invokevirtual #38                 // Method length:()I
     181: istore        8
     183: aload         7
     185: aload_0
     186: iload         4
     188: iload         8
     190: invokevirtual #107                // Method substring:(II)Ljava/lang/String;
     193: invokevirtual #140                // Method java/util/ArrayList.add:(Ljava/lang/Object;)Z
     196: pop
     197: iload         8
     199: istore        4
     201: goto          204
     204: iload         4
     206: ifne          218
     209: iconst_1
     210: anewarray     #11                 // class java/lang/String
     213: dup
     214: iconst_0
     215: aload_0
     216: aastore
     217: areturn
     218: iload         6
     220: ifeq          232
     223: aload         7
     225: invokevirtual #139                // Method java/util/ArrayList.size:()I
     228: iload_2
     229: if_icmpge     248
     232: aload         7
     234: aload_0
     235: iload         4
     237: aload_0
     238: invokevirtual #38                 // Method length:()I
     241: invokevirtual #107                // Method substring:(II)Ljava/lang/String;
     244: invokevirtual #140                // Method java/util/ArrayList.add:(Ljava/lang/Object;)Z
     247: pop
     248: aload         7
     250: invokevirtual #139                // Method java/util/ArrayList.size:()I
     253: istore        8
     255: iload_2
     256: ifne          288
     259: iload         8
     261: ifle          288
     264: aload         7
     266: iload         8
     268: iconst_1
     269: isub
     270: invokevirtual #141                // Method java/util/ArrayList.get:(I)Ljava/lang/Object;
     273: checkcast     #11                 // class java/lang/String
     276: invokevirtual #108                // Method isEmpty:()Z
     279: ifeq          288
     282: iinc          8, -1
     285: goto          259
     288: iload         8
     290: anewarray     #11                 // class java/lang/String
     293: astore        9
     295: aload         7
     297: iconst_0
     298: iload         8
     300: invokevirtual #142                // Method java/util/ArrayList.subList:(II)Ljava/util/List;
     303: aload         9
     305: invokeinterface #143,  2          // InterfaceMethod java/util/List.toArray:([Ljava/lang/Object;)[Ljava/lang/Object;
     310: checkcast     #144                // class "[Ljava/lang/String;"
     313: areturn
     314: aload_1
     315: invokestatic  #118                // Method java/util/regex/Pattern.compile:(Ljava/lang/String;)Ljava/util/regex/Pattern;
     318: aload_0
     319: iload_2
     320: invokevirtual #145                // Method java/util/regex/Pattern.split:(Ljava/lang/CharSequence;I)[Ljava/lang/String;
     323: areturn

  public java.lang.String[] split(java.lang.String);
    Code:
       0: aload_0
       1: aload_1
       2: iconst_0
       3: invokevirtual #146                // Method split:(Ljava/lang/String;I)[Ljava/lang/String;
       6: areturn

  public static java.lang.String join(java.lang.CharSequence, java.lang.CharSequence...);
    Code:
       0: aload_0
       1: invokestatic  #49                 // Method java/util/Objects.requireNonNull:(Ljava/lang/Object;)Ljava/lang/Object;
       4: pop
       5: aload_1
       6: invokestatic  #49                 // Method java/util/Objects.requireNonNull:(Ljava/lang/Object;)Ljava/lang/Object;
       9: pop
      10: new           #147                // class java/util/StringJoiner
      13: dup
      14: aload_0
      15: invokespecial #148                // Method java/util/StringJoiner."<init>":(Ljava/lang/CharSequence;)V
      18: astore_2
      19: aload_1
      20: astore_3
      21: aload_3
      22: arraylength
      23: istore        4
      25: iconst_0
      26: istore        5
      28: iload         5
      30: iload         4
      32: if_icmpge     54
      35: aload_3
      36: iload         5
      38: aaload
      39: astore        6
      41: aload_2
      42: aload         6
      44: invokevirtual #149                // Method java/util/StringJoiner.add:(Ljava/lang/CharSequence;)Ljava/util/StringJoiner;
      47: pop
      48: iinc          5, 1
      51: goto          28
      54: aload_2
      55: invokevirtual #150                // Method java/util/StringJoiner.toString:()Ljava/lang/String;
      58: areturn

  public static java.lang.String join(java.lang.CharSequence, java.lang.Iterable<? extends java.lang.CharSequence>);
    Code:
       0: aload_0
       1: invokestatic  #49                 // Method java/util/Objects.requireNonNull:(Ljava/lang/Object;)Ljava/lang/Object;
       4: pop
       5: aload_1
       6: invokestatic  #49                 // Method java/util/Objects.requireNonNull:(Ljava/lang/Object;)Ljava/lang/Object;
       9: pop
      10: new           #147                // class java/util/StringJoiner
      13: dup
      14: aload_0
      15: invokespecial #148                // Method java/util/StringJoiner."<init>":(Ljava/lang/CharSequence;)V
      18: astore_2
      19: aload_1
      20: invokeinterface #151,  1          // InterfaceMethod java/lang/Iterable.iterator:()Ljava/util/Iterator;
      25: astore_3
      26: aload_3
      27: invokeinterface #152,  1          // InterfaceMethod java/util/Iterator.hasNext:()Z
      32: ifeq          56
      35: aload_3
      36: invokeinterface #153,  1          // InterfaceMethod java/util/Iterator.next:()Ljava/lang/Object;
      41: checkcast     #154                // class java/lang/CharSequence
      44: astore        4
      46: aload_2
      47: aload         4
      49: invokevirtual #149                // Method java/util/StringJoiner.add:(Ljava/lang/CharSequence;)Ljava/util/StringJoiner;
      52: pop
      53: goto          26
      56: aload_2
      57: invokevirtual #150                // Method java/util/StringJoiner.toString:()Ljava/lang/String;
      60: areturn

  public java.lang.String toLowerCase(java.util.Locale);
    Code:
       0: aload_0
       1: invokevirtual #33                 // Method isLatin1:()Z
       4: ifeq          19
       7: aload_0
       8: aload_0
       9: getfield      #3                  // Field value:[B
      12: aload_1
      13: invokestatic  #155                // Method java/lang/StringLatin1.toLowerCase:(Ljava/lang/String;[BLjava/util/Locale;)Ljava/lang/String;
      16: goto          28
      19: aload_0
      20: aload_0
      21: getfield      #3                  // Field value:[B
      24: aload_1
      25: invokestatic  #156                // Method java/lang/StringUTF16.toLowerCase:(Ljava/lang/String;[BLjava/util/Locale;)Ljava/lang/String;
      28: areturn

  public java.lang.String toLowerCase();
    Code:
       0: aload_0
       1: invokestatic  #157                // Method java/util/Locale.getDefault:()Ljava/util/Locale;
       4: invokevirtual #158                // Method toLowerCase:(Ljava/util/Locale;)Ljava/lang/String;
       7: areturn

  public java.lang.String toUpperCase(java.util.Locale);
    Code:
       0: aload_0
       1: invokevirtual #33                 // Method isLatin1:()Z
       4: ifeq          19
       7: aload_0
       8: aload_0
       9: getfield      #3                  // Field value:[B
      12: aload_1
      13: invokestatic  #159                // Method java/lang/StringLatin1.toUpperCase:(Ljava/lang/String;[BLjava/util/Locale;)Ljava/lang/String;
      16: goto          28
      19: aload_0
      20: aload_0
      21: getfield      #3                  // Field value:[B
      24: aload_1
      25: invokestatic  #160                // Method java/lang/StringUTF16.toUpperCase:(Ljava/lang/String;[BLjava/util/Locale;)Ljava/lang/String;
      28: areturn

  public java.lang.String toUpperCase();
    Code:
       0: aload_0
       1: invokestatic  #157                // Method java/util/Locale.getDefault:()Ljava/util/Locale;
       4: invokevirtual #161                // Method toUpperCase:(Ljava/util/Locale;)Ljava/lang/String;
       7: areturn

  public java.lang.String trim();
    Code:
       0: aload_0
       1: invokevirtual #33                 // Method isLatin1:()Z
       4: ifeq          17
       7: aload_0
       8: getfield      #3                  // Field value:[B
      11: invokestatic  #162                // Method java/lang/StringLatin1.trim:([B)Ljava/lang/String;
      14: goto          24
      17: aload_0
      18: getfield      #3                  // Field value:[B
      21: invokestatic  #163                // Method java/lang/StringUTF16.trim:([B)Ljava/lang/String;
      24: astore_1
      25: aload_1
      26: ifnonnull     33
      29: aload_0
      30: goto          34
      33: aload_1
      34: areturn

  public java.lang.String strip();
    Code:
       0: aload_0
       1: invokevirtual #33                 // Method isLatin1:()Z
       4: ifeq          17
       7: aload_0
       8: getfield      #3                  // Field value:[B
      11: invokestatic  #164                // Method java/lang/StringLatin1.strip:([B)Ljava/lang/String;
      14: goto          24
      17: aload_0
      18: getfield      #3                  // Field value:[B
      21: invokestatic  #165                // Method java/lang/StringUTF16.strip:([B)Ljava/lang/String;
      24: astore_1
      25: aload_1
      26: ifnonnull     33
      29: aload_0
      30: goto          34
      33: aload_1
      34: areturn

  public java.lang.String stripLeading();
    Code:
       0: aload_0
       1: invokevirtual #33                 // Method isLatin1:()Z
       4: ifeq          17
       7: aload_0
       8: getfield      #3                  // Field value:[B
      11: invokestatic  #166                // Method java/lang/StringLatin1.stripLeading:([B)Ljava/lang/String;
      14: goto          24
      17: aload_0
      18: getfield      #3                  // Field value:[B
      21: invokestatic  #167                // Method java/lang/StringUTF16.stripLeading:([B)Ljava/lang/String;
      24: astore_1
      25: aload_1
      26: ifnonnull     33
      29: aload_0
      30: goto          34
      33: aload_1
      34: areturn

  public java.lang.String stripTrailing();
    Code:
       0: aload_0
       1: invokevirtual #33                 // Method isLatin1:()Z
       4: ifeq          17
       7: aload_0
       8: getfield      #3                  // Field value:[B
      11: invokestatic  #168                // Method java/lang/StringLatin1.stripTrailing:([B)Ljava/lang/String;
      14: goto          24
      17: aload_0
      18: getfield      #3                  // Field value:[B
      21: invokestatic  #169                // Method java/lang/StringUTF16.stripTrailing:([B)Ljava/lang/String;
      24: astore_1
      25: aload_1
      26: ifnonnull     33
      29: aload_0
      30: goto          34
      33: aload_1
      34: areturn

  public boolean isBlank();
    Code:
       0: aload_0
       1: invokevirtual #170                // Method indexOfNonWhitespace:()I
       4: aload_0
       5: invokevirtual #38                 // Method length:()I
       8: if_icmpne     15
      11: iconst_1
      12: goto          16
      15: iconst_0
      16: ireturn

  public java.util.stream.Stream<java.lang.String> lines();
    Code:
       0: aload_0
       1: invokevirtual #33                 // Method isLatin1:()Z
       4: ifeq          17
       7: aload_0
       8: getfield      #3                  // Field value:[B
      11: invokestatic  #173                // Method java/lang/StringLatin1.lines:([B)Ljava/util/stream/Stream;
      14: goto          24
      17: aload_0
      18: getfield      #3                  // Field value:[B
      21: invokestatic  #174                // Method java/lang/StringUTF16.lines:([B)Ljava/util/stream/Stream;
      24: areturn

  public java.lang.String toString();
    Code:
       0: aload_0
       1: areturn

  public java.util.stream.IntStream chars();
    Code:
       0: aload_0
       1: invokevirtual #33                 // Method isLatin1:()Z
       4: ifeq          24
       7: new           #175                // class java/lang/StringLatin1$CharsSpliterator
      10: dup
      11: aload_0
      12: getfield      #3                  // Field value:[B
      15: sipush        1024
      18: invokespecial #177                // Method java/lang/StringLatin1$CharsSpliterator."<init>":([BI)V
      21: goto          38
      24: new           #178                // class java/lang/StringUTF16$CharsSpliterator
      27: dup
      28: aload_0
      29: getfield      #3                  // Field value:[B
      32: sipush        1024
      35: invokespecial #179                // Method java/lang/StringUTF16$CharsSpliterator."<init>":([BI)V
      38: iconst_0
      39: invokestatic  #180                // Method java/util/stream/StreamSupport.intStream:(Ljava/util/Spliterator$OfInt;Z)Ljava/util/stream/IntStream;
      42: areturn

  public java.util.stream.IntStream codePoints();
    Code:
       0: aload_0
       1: invokevirtual #33                 // Method isLatin1:()Z
       4: ifeq          24
       7: new           #175                // class java/lang/StringLatin1$CharsSpliterator
      10: dup
      11: aload_0
      12: getfield      #3                  // Field value:[B
      15: sipush        1024
      18: invokespecial #177                // Method java/lang/StringLatin1$CharsSpliterator."<init>":([BI)V
      21: goto          38
      24: new           #181                // class java/lang/StringUTF16$CodePointsSpliterator
      27: dup
      28: aload_0
      29: getfield      #3                  // Field value:[B
      32: sipush        1024
      35: invokespecial #182                // Method java/lang/StringUTF16$CodePointsSpliterator."<init>":([BI)V
      38: iconst_0
      39: invokestatic  #180                // Method java/util/stream/StreamSupport.intStream:(Ljava/util/Spliterator$OfInt;Z)Ljava/util/stream/IntStream;
      42: areturn

  public char[] toCharArray();
    Code:
       0: aload_0
       1: invokevirtual #33                 // Method isLatin1:()Z
       4: ifeq          17
       7: aload_0
       8: getfield      #3                  // Field value:[B
      11: invokestatic  #183                // Method java/lang/StringLatin1.toChars:([B)[C
      14: goto          24
      17: aload_0
      18: getfield      #3                  // Field value:[B
      21: invokestatic  #184                // Method java/lang/StringUTF16.toChars:([B)[C
      24: areturn

  public static java.lang.String format(java.lang.String, java.lang.Object...);
    Code:
       0: new           #185                // class java/util/Formatter
       3: dup
       4: invokespecial #186                // Method java/util/Formatter."<init>":()V
       7: aload_0
       8: aload_1
       9: invokevirtual #187                // Method java/util/Formatter.format:(Ljava/lang/String;[Ljava/lang/Object;)Ljava/util/Formatter;
      12: invokevirtual #188                // Method java/util/Formatter.toString:()Ljava/lang/String;
      15: areturn

  public static java.lang.String format(java.util.Locale, java.lang.String, java.lang.Object...);
    Code:
       0: new           #185                // class java/util/Formatter
       3: dup
       4: aload_0
       5: invokespecial #189                // Method java/util/Formatter."<init>":(Ljava/util/Locale;)V
       8: aload_1
       9: aload_2
      10: invokevirtual #187                // Method java/util/Formatter.format:(Ljava/lang/String;[Ljava/lang/Object;)Ljava/util/Formatter;
      13: invokevirtual #188                // Method java/util/Formatter.toString:()Ljava/lang/String;
      16: areturn

  public static java.lang.String valueOf(java.lang.Object);
    Code:
       0: aload_0
       1: ifnonnull     9
       4: ldc           #190                // String null
       6: goto          13
       9: aload_0
      10: invokevirtual #191                // Method java/lang/Object.toString:()Ljava/lang/String;
      13: areturn

  public static java.lang.String valueOf(char[]);
    Code:
       0: new           #11                 // class java/lang/String
       3: dup
       4: aload_0
       5: invokespecial #192                // Method "<init>":([C)V
       8: areturn

  public static java.lang.String valueOf(char[], int, int);
    Code:
       0: new           #11                 // class java/lang/String
       3: dup
       4: aload_0
       5: iload_1
       6: iload_2
       7: invokespecial #193                // Method "<init>":([CII)V
      10: areturn

  public static java.lang.String copyValueOf(char[], int, int);
    Code:
       0: new           #11                 // class java/lang/String
       3: dup
       4: aload_0
       5: iload_1
       6: iload_2
       7: invokespecial #193                // Method "<init>":([CII)V
      10: areturn

  public static java.lang.String copyValueOf(char[]);
    Code:
       0: new           #11                 // class java/lang/String
       3: dup
       4: aload_0
       5: invokespecial #192                // Method "<init>":([C)V
       8: areturn

  public static java.lang.String valueOf(boolean);
    Code:
       0: iload_0
       1: ifeq          9
       4: ldc           #194                // String true
       6: goto          11
       9: ldc           #195                // String false
      11: areturn

  public static java.lang.String valueOf(char);
    Code:
       0: getstatic     #9                  // Field COMPACT_STRINGS:Z
       3: ifeq          26
       6: iload_0
       7: invokestatic  #196                // Method java/lang/StringLatin1.canEncode:(I)Z
      10: ifeq          26
      13: new           #11                 // class java/lang/String
      16: dup
      17: iload_0
      18: invokestatic  #197                // Method java/lang/StringLatin1.toBytes:(C)[B
      21: iconst_0
      22: invokespecial #111                // Method "<init>":([BB)V
      25: areturn
      26: new           #11                 // class java/lang/String
      29: dup
      30: iload_0
      31: invokestatic  #198                // Method java/lang/StringUTF16.toBytes:(C)[B
      34: iconst_1
      35: invokespecial #111                // Method "<init>":([BB)V
      38: areturn

  public static java.lang.String valueOf(int);
    Code:
       0: iload_0
       1: invokestatic  #199                // Method java/lang/Integer.toString:(I)Ljava/lang/String;
       4: areturn

  public static java.lang.String valueOf(long);
    Code:
       0: lload_0
       1: invokestatic  #200                // Method java/lang/Long.toString:(J)Ljava/lang/String;
       4: areturn

  public static java.lang.String valueOf(float);
    Code:
       0: fload_0
       1: invokestatic  #201                // Method java/lang/Float.toString:(F)Ljava/lang/String;
       4: areturn

  public static java.lang.String valueOf(double);
    Code:
       0: dload_0
       1: invokestatic  #202                // Method java/lang/Double.toString:(D)Ljava/lang/String;
       4: areturn

  public native java.lang.String intern();

  public java.lang.String repeat(int);
    Code:
       0: iload_1
       1: ifge          31
       4: new           #203                // class java/lang/IllegalArgumentException
       7: dup
       8: new           #125                // class java/lang/StringBuilder
      11: dup
      12: invokespecial #204                // Method java/lang/StringBuilder."<init>":()V
      15: ldc           #205                // String count is negative:
      17: invokevirtual #128                // Method java/lang/StringBuilder.append:(Ljava/lang/String;)Ljava/lang/StringBuilder;
      20: iload_1
      21: invokevirtual #206                // Method java/lang/StringBuilder.append:(I)Ljava/lang/StringBuilder;
      24: invokevirtual #130                // Method java/lang/StringBuilder.toString:()Ljava/lang/String;
      27: invokespecial #207                // Method java/lang/IllegalArgumentException."<init>":(Ljava/lang/String;)V
      30: athrow
      31: iload_1
      32: iconst_1
      33: if_icmpne     38
      36: aload_0
      37: areturn
      38: aload_0
      39: getfield      #3                  // Field value:[B
      42: arraylength
      43: istore_2
      44: iload_2
      45: ifeq          52
      48: iload_1
      49: ifne          55
      52: ldc           #2                  // String
      54: areturn
      55: iload_2
      56: iconst_1
      57: if_icmpne     87
      60: iload_1
      61: newarray       byte
      63: astore_3
      64: aload_3
      65: aload_0
      66: getfield      #3                  // Field value:[B
      69: iconst_0
      70: baload
      71: invokestatic  #208                // Method java/util/Arrays.fill:([BB)V
      74: new           #11                 // class java/lang/String
      77: dup
      78: aload_3
      79: aload_0
      80: getfield      #4                  // Field coder:B
      83: invokespecial #111                // Method "<init>":([BB)V
      86: areturn
      87: ldc           #210                // int 2147483647
      89: iload_1
      90: idiv
      91: iload_2
      92: if_icmpge     136
      95: new           #123                // class java/lang/OutOfMemoryError
      98: dup
      99: new           #125                // class java/lang/StringBuilder
     102: dup
     103: invokespecial #204                // Method java/lang/StringBuilder."<init>":()V
     106: ldc           #211                // String Repeating
     108: invokevirtual #128                // Method java/lang/StringBuilder.append:(Ljava/lang/String;)Ljava/lang/StringBuilder;
     111: iload_2
     112: invokevirtual #206                // Method java/lang/StringBuilder.append:(I)Ljava/lang/StringBuilder;
     115: ldc           #212                // String  bytes String
     117: invokevirtual #128                // Method java/lang/StringBuilder.append:(Ljava/lang/String;)Ljava/lang/StringBuilder;
     120: iload_1
     121: invokevirtual #206                // Method java/lang/StringBuilder.append:(I)Ljava/lang/StringBuilder;
     124: ldc           #213                // String  times will produce a String exceeding maximum size.
     126: invokevirtual #128                // Method java/lang/StringBuilder.append:(Ljava/lang/String;)Ljava/lang/StringBuilder;
     129: invokevirtual #130                // Method java/lang/StringBuilder.toString:()Ljava/lang/String;
     132: invokespecial #214                // Method java/lang/OutOfMemoryError."<init>":(Ljava/lang/String;)V
     135: athrow
     136: iload_2
     137: iload_1
     138: imul
     139: istore_3
     140: iload_3
     141: newarray       byte
     143: astore        4
     145: aload_0
     146: getfield      #3                  // Field value:[B
     149: iconst_0
     150: aload         4
     152: iconst_0
     153: iload_2
     154: invokestatic  #110                // Method java/lang/System.arraycopy:(Ljava/lang/Object;ILjava/lang/Object;II)V
     157: iload_2
     158: istore        5
     160: iload         5
     162: iload_3
     163: iload         5
     165: isub
     166: if_icmpge     190
     169: aload         4
     171: iconst_0
     172: aload         4
     174: iload         5
     176: iload         5
     178: invokestatic  #110                // Method java/lang/System.arraycopy:(Ljava/lang/Object;ILjava/lang/Object;II)V
     181: iload         5
     183: iconst_1
     184: ishl
     185: istore        5
     187: goto          160
     190: aload         4
     192: iconst_0
     193: aload         4
     195: iload         5
     197: iload_3
     198: iload         5
     200: isub
     201: invokestatic  #110                // Method java/lang/System.arraycopy:(Ljava/lang/Object;ILjava/lang/Object;II)V
     204: new           #11                 // class java/lang/String
     207: dup
     208: aload         4
     210: aload_0
     211: getfield      #4                  // Field coder:B
     214: invokespecial #111                // Method "<init>":([BB)V
     217: areturn

  void getBytes(byte[], int, byte);
    Code:
       0: aload_0
       1: invokevirtual #32                 // Method coder:()B
       4: iload_3
       5: if_icmpne     28
       8: aload_0
       9: getfield      #3                  // Field value:[B
      12: iconst_0
      13: aload_1
      14: iload_2
      15: iload_3
      16: ishl
      17: aload_0
      18: getfield      #3                  // Field value:[B
      21: arraylength
      22: invokestatic  #110                // Method java/lang/System.arraycopy:(Ljava/lang/Object;ILjava/lang/Object;II)V
      25: goto          43
      28: aload_0
      29: getfield      #3                  // Field value:[B
      32: iconst_0
      33: aload_1
      34: iload_2
      35: aload_0
      36: getfield      #3                  // Field value:[B
      39: arraylength
      40: invokestatic  #215                // Method java/lang/StringLatin1.inflate:([BI[BII)V
      43: return

  java.lang.String(char[], int, int, java.lang.Void);
    Code:
       0: aload_0
       1: invokespecial #1                  // Method java/lang/Object."<init>":()V
       4: iload_3
       5: ifne          27
       8: aload_0
       9: ldc           #2                  // String
      11: getfield      #3                  // Field value:[B
      14: putfield      #3                  // Field value:[B
      17: aload_0
      18: ldc           #2                  // String
      20: getfield      #4                  // Field coder:B
      23: putfield      #4                  // Field coder:B
      26: return
      27: getstatic     #9                  // Field COMPACT_STRINGS:Z
      30: ifeq          58
      33: aload_1
      34: iload_2
      35: iload_3
      36: invokestatic  #216                // Method java/lang/StringUTF16.compress:([CII)[B
      39: astore        5
      41: aload         5
      43: ifnull        58
      46: aload_0
      47: aload         5
      49: putfield      #3                  // Field value:[B
      52: aload_0
      53: iconst_0
      54: putfield      #4                  // Field coder:B
      57: return
      58: aload_0
      59: iconst_1
      60: putfield      #4                  // Field coder:B
      63: aload_0
      64: aload_1
      65: iload_2
      66: iload_3
      67: invokestatic  #217                // Method java/lang/StringUTF16.toBytes:([CII)[B
      70: putfield      #3                  // Field value:[B
      73: return

  java.lang.String(java.lang.AbstractStringBuilder, java.lang.Void);
    Code:
       0: aload_0
       1: invokespecial #1                  // Method java/lang/Object."<init>":()V
       4: aload_1
       5: invokevirtual #60                 // Method java/lang/AbstractStringBuilder.getValue:()[B
       8: astore_3
       9: aload_1
      10: invokevirtual #59                 // Method java/lang/AbstractStringBuilder.length:()I
      13: istore        4
      15: aload_1
      16: invokevirtual #218                // Method java/lang/AbstractStringBuilder.isLatin1:()Z
      19: ifeq          41
      22: aload_0
      23: iconst_0
      24: putfield      #4                  // Field coder:B
      27: aload_0
      28: aload_3
      29: iconst_0
      30: iload         4
      32: invokestatic  #13                 // Method java/util/Arrays.copyOfRange:([BII)[B
      35: putfield      #3                  // Field value:[B
      38: goto          91
      41: getstatic     #9                  // Field COMPACT_STRINGS:Z
      44: ifeq          73
      47: aload_3
      48: iconst_0
      49: iload         4
      51: invokestatic  #219                // Method java/lang/StringUTF16.compress:([BII)[B
      54: astore        5
      56: aload         5
      58: ifnull        73
      61: aload_0
      62: iconst_0
      63: putfield      #4                  // Field coder:B
      66: aload_0
      67: aload         5
      69: putfield      #3                  // Field value:[B
      72: return
      73: aload_0
      74: iconst_1
      75: putfield      #4                  // Field coder:B
      78: aload_0
      79: aload_3
      80: iconst_0
      81: iload         4
      83: iconst_1
      84: ishl
      85: invokestatic  #13                 // Method java/util/Arrays.copyOfRange:([BII)[B
      88: putfield      #3                  // Field value:[B
      91: return

  java.lang.String(byte[], byte);
    Code:
       0: aload_0
       1: invokespecial #1                  // Method java/lang/Object."<init>":()V
       4: aload_0
       5: aload_1
       6: putfield      #3                  // Field value:[B
       9: aload_0
      10: iload_2
      11: putfield      #4                  // Field coder:B
      14: return

  byte coder();
    Code:
       0: getstatic     #9                  // Field COMPACT_STRINGS:Z
       3: ifeq          13
       6: aload_0
       7: getfield      #4                  // Field coder:B
      10: goto          14
      13: iconst_1
      14: ireturn

  byte[] value();
    Code:
       0: aload_0
       1: getfield      #3                  // Field value:[B
       4: areturn

  static void checkIndex(int, int);
    Code:
       0: iload_0
       1: iflt          9
       4: iload_0
       5: iload_1
       6: if_icmplt     45
       9: new           #39                 // class java/lang/StringIndexOutOfBoundsException
      12: dup
      13: new           #125                // class java/lang/StringBuilder
      16: dup
      17: invokespecial #204                // Method java/lang/StringBuilder."<init>":()V
      20: ldc           #220                // String index
      22: invokevirtual #128                // Method java/lang/StringBuilder.append:(Ljava/lang/String;)Ljava/lang/StringBuilder;
      25: iload_0
      26: invokevirtual #206                // Method java/lang/StringBuilder.append:(I)Ljava/lang/StringBuilder;
      29: ldc           #221                // String ,length
      31: invokevirtual #128                // Method java/lang/StringBuilder.append:(Ljava/lang/String;)Ljava/lang/StringBuilder;
      34: iload_1
      35: invokevirtual #206                // Method java/lang/StringBuilder.append:(I)Ljava/lang/StringBuilder;
      38: invokevirtual #130                // Method java/lang/StringBuilder.toString:()Ljava/lang/String;
      41: invokespecial #222                // Method java/lang/StringIndexOutOfBoundsException."<init>":(Ljava/lang/String;)V
      44: athrow
      45: return

  static void checkOffset(int, int);
    Code:
       0: iload_0
       1: iflt          9
       4: iload_0
       5: iload_1
       6: if_icmple     45
       9: new           #39                 // class java/lang/StringIndexOutOfBoundsException
      12: dup
      13: new           #125                // class java/lang/StringBuilder
      16: dup
      17: invokespecial #204                // Method java/lang/StringBuilder."<init>":()V
      20: ldc           #223                // String offset
      22: invokevirtual #128                // Method java/lang/StringBuilder.append:(Ljava/lang/String;)Ljava/lang/StringBuilder;
      25: iload_0
      26: invokevirtual #206                // Method java/lang/StringBuilder.append:(I)Ljava/lang/StringBuilder;
      29: ldc           #221                // String ,length
      31: invokevirtual #128                // Method java/lang/StringBuilder.append:(Ljava/lang/String;)Ljava/lang/StringBuilder;
      34: iload_1
      35: invokevirtual #206                // Method java/lang/StringBuilder.append:(I)Ljava/lang/StringBuilder;
      38: invokevirtual #130                // Method java/lang/StringBuilder.toString:()Ljava/lang/String;
      41: invokespecial #222                // Method java/lang/StringIndexOutOfBoundsException."<init>":(Ljava/lang/String;)V
      44: athrow
      45: return

  static void checkBoundsOffCount(int, int, int);
    Code:
       0: iload_0
       1: iflt          15
       4: iload_1
       5: iflt          15
       8: iload_0
       9: iload_2
      10: iload_1
      11: isub
      12: if_icmple     60
      15: new           #39                 // class java/lang/StringIndexOutOfBoundsException
      18: dup
      19: new           #125                // class java/lang/StringBuilder
      22: dup
      23: invokespecial #204                // Method java/lang/StringBuilder."<init>":()V
      26: ldc           #223                // String offset
      28: invokevirtual #128                // Method java/lang/StringBuilder.append:(Ljava/lang/String;)Ljava/lang/StringBuilder;
      31: iload_0
      32: invokevirtual #206                // Method java/lang/StringBuilder.append:(I)Ljava/lang/StringBuilder;
      35: ldc           #224                // String , count
      37: invokevirtual #128                // Method java/lang/StringBuilder.append:(Ljava/lang/String;)Ljava/lang/StringBuilder;
      40: iload_1
      41: invokevirtual #206                // Method java/lang/StringBuilder.append:(I)Ljava/lang/StringBuilder;
      44: ldc           #225                // String , length
      46: invokevirtual #128                // Method java/lang/StringBuilder.append:(Ljava/lang/String;)Ljava/lang/StringBuilder;
      49: iload_2
      50: invokevirtual #206                // Method java/lang/StringBuilder.append:(I)Ljava/lang/StringBuilder;
      53: invokevirtual #130                // Method java/lang/StringBuilder.toString:()Ljava/lang/String;
      56: invokespecial #222                // Method java/lang/StringIndexOutOfBoundsException."<init>":(Ljava/lang/String;)V
      59: athrow
      60: return

  static void checkBoundsBeginEnd(int, int, int);
    Code:
       0: iload_0
       1: iflt          14
       4: iload_0
       5: iload_1
       6: if_icmpgt     14
       9: iload_1
      10: iload_2
      11: if_icmple     59
      14: new           #39                 // class java/lang/StringIndexOutOfBoundsException
      17: dup
      18: new           #125                // class java/lang/StringBuilder
      21: dup
      22: invokespecial #204                // Method java/lang/StringBuilder."<init>":()V
      25: ldc           #226                // String begin
      27: invokevirtual #128                // Method java/lang/StringBuilder.append:(Ljava/lang/String;)Ljava/lang/StringBuilder;
      30: iload_0
      31: invokevirtual #206                // Method java/lang/StringBuilder.append:(I)Ljava/lang/StringBuilder;
      34: ldc           #227                // String , end
      36: invokevirtual #128                // Method java/lang/StringBuilder.append:(Ljava/lang/String;)Ljava/lang/StringBuilder;
      39: iload_1
      40: invokevirtual #206                // Method java/lang/StringBuilder.append:(I)Ljava/lang/StringBuilder;
      43: ldc           #225                // String , length
      45: invokevirtual #128                // Method java/lang/StringBuilder.append:(Ljava/lang/String;)Ljava/lang/StringBuilder;
      48: iload_2
      49: invokevirtual #206                // Method java/lang/StringBuilder.append:(I)Ljava/lang/StringBuilder;
      52: invokevirtual #130                // Method java/lang/StringBuilder.toString:()Ljava/lang/String;
      55: invokespecial #222                // Method java/lang/StringIndexOutOfBoundsException."<init>":(Ljava/lang/String;)V
      58: athrow
      59: return

  static java.lang.String valueOfCodePoint(int);
    Code:
       0: getstatic     #9                  // Field COMPACT_STRINGS:Z
       3: ifeq          27
       6: iload_0
       7: invokestatic  #196                // Method java/lang/StringLatin1.canEncode:(I)Z
      10: ifeq          27
      13: new           #11                 // class java/lang/String
      16: dup
      17: iload_0
      18: i2c
      19: invokestatic  #197                // Method java/lang/StringLatin1.toBytes:(C)[B
      22: iconst_0
      23: invokespecial #111                // Method "<init>":([BB)V
      26: areturn
      27: iload_0
      28: invokestatic  #228                // Method java/lang/Character.isBmpCodePoint:(I)Z
      31: ifeq          48
      34: new           #11                 // class java/lang/String
      37: dup
      38: iload_0
      39: i2c
      40: invokestatic  #198                // Method java/lang/StringUTF16.toBytes:(C)[B
      43: iconst_1
      44: invokespecial #111                // Method "<init>":([BB)V
      47: areturn
      48: iload_0
      49: invokestatic  #229                // Method java/lang/Character.isSupplementaryCodePoint:(I)Z
      52: ifeq          68
      55: new           #11                 // class java/lang/String
      58: dup
      59: iload_0
      60: invokestatic  #230                // Method java/lang/StringUTF16.toBytesSupplementary:(I)[B
      63: iconst_1
      64: invokespecial #111                // Method "<init>":([BB)V
      67: areturn
      68: new           #203                // class java/lang/IllegalArgumentException
      71: dup
      72: ldc           #231                // String Not a valid Unicode code point: 0x%X
      74: iconst_1
      75: anewarray     #232                // class java/lang/Object
      78: dup
      79: iconst_0
      80: iload_0
      81: invokestatic  #233                // Method java/lang/Integer.valueOf:(I)Ljava/lang/Integer;
      84: aastore
      85: invokestatic  #234                // Method format:(Ljava/lang/String;[Ljava/lang/Object;)Ljava/lang/String;
      88: invokespecial #207                // Method java/lang/IllegalArgumentException."<init>":(Ljava/lang/String;)V
      91: athrow

  public int compareTo(java.lang.Object);
    Code:
       0: aload_0
       1: aload_1
       2: checkcast     #11                 // class java/lang/String
       5: invokevirtual #235                // Method compareTo:(Ljava/lang/String;)I
       8: ireturn

  static {};
    Code:
       0: iconst_1
       1: putstatic     #9                  // Field COMPACT_STRINGS:Z
       4: iconst_0
       5: anewarray     #236                // class java/io/ObjectStreamField
       8: putstatic     #237                // Field serialPersistentFields:[Ljava/io/ObjectStreamField;
      11: new           #238                // class java/lang/String$CaseInsensitiveComparator
      14: dup
      15: invokespecial #239                // Method java/lang/String$CaseInsensitiveComparator."<init>":()V
      18: putstatic     #75                 // Field CASE_INSENSITIVE_ORDER:Ljava/util/Comparator;
      21: return
}
